D	1	/home/mlang/Documents/dprl/anyphoc/inputs/ACL/pdf/liu-etal-2000-word.pdf
P	1	2176	2816
P	2	2176	2816
FR	1	1500	629	1546	664
o	1	T	1500	629	1546	664		
MML	2	"<mi xml:id="0:1:">\n T\n</mi>"	0	0	0	0		
FR	2	1766	862	1970	898
o	1	P	1766	863	1786	891		
o	2	LeftPar	1788	863	1799	898		
o	3	infty	1800	872	1834	891		
o	4	m	1834	867	1862	892		
o	5	epsilon	1863	872	1897	891		
o	6	t	1896	868	1908	892		
o	7	LeftPar	1908	863	1920	898		
o	8	w	1920	872	1946	891		
o	9	RightPar	1946	862	1957	898		
o	10	RightPar	1958	863	1970	898		
R	11	HORIZONTAL	1	2	0	0		
R	12	HORIZONTAL	2	3	0	0		
R	13	HORIZONTAL	3	4	0	0		
R	14	HORIZONTAL	4	5	0	0		
R	15	HORIZONTAL	5	6	0	0		
R	16	HORIZONTAL	6	7	0	0		
R	17	HORIZONTAL	7	10	0	0		
R	18	HORIZONTAL	8	9	0	0		
R	19	HORIZONTAL	10	8	0	0		
MML	20	"<mrow>\n <mi xml:id="0:">\n  P\n </mi>\n <mi xml:id="1:">\n  (\n </mi>\n <mi xml:id="2:">\n  ∞\n </mi>\n <mi xml:id="3:">\n  m\n </mi>\n <mi xml:id="4:">\n  ε\n </mi>\n <mi xml:id="5:">\n  t\n </mi>\n <mi xml:id="6:">\n  (\n </mi>\n <mi xml:id="9:">\n  w\n </mi>\n <mi xml:id="7:">\n  )\n </mi>\n <mi xml:id="8:">\n  )\n </mi>\n</mrow>"	0	0	0	0		
FR	3	1230	953	1679	989
o	1	P	1230	955	1250	981		
o	2	LeftPar	1252	954	1264	988		
o	3	alpha	1264	962	1318	981		
o	4	t	1315	957	1326	981		
o	5	alpha	1327	957	1372	982		
o	6	LeftPar	1372	954	1384	988		
o	7	w	1383	962	1411	981		
o	8	RightPar	1412	953	1422	987		
o	9	vert	1424	954	1429	989		
o	10	s	1430	962	1444	981		
o	11	m	1444	962	1495	988		
o	12	epsilon	1496	957	1522	981		
o	13	RightPar	1522	954	1533	988		
o	14	P	1534	954	1553	980		
o	15	LeftPar	1556	954	1568	988		
o	16	s	1569	962	1633	988		
o	17	t	1634	957	1659	981		
o	18	RightPar	1660	953	1671	987		
o	19	dot	1674	975	1679	980		
R	20	HORIZONTAL	1	2	0	0		
R	21	HORIZONTAL	2	3	0	0		
R	22	HORIZONTAL	3	4	0	0		
R	23	HORIZONTAL	4	5	0	0		
R	24	HORIZONTAL	5	6	0	0		
R	25	HORIZONTAL	6	7	0	0		
R	26	HORIZONTAL	7	8	0	0		
R	27	HORIZONTAL	8	9	0	0		
R	28	HORIZONTAL	9	10	0	0		
R	29	HORIZONTAL	10	11	0	0		
R	30	HORIZONTAL	11	12	0	0		
R	31	HORIZONTAL	12	13	0	0		
R	32	HORIZONTAL	13	14	0	0		
R	33	HORIZONTAL	14	15	0	0		
R	34	HORIZONTAL	15	16	0	0		
R	35	HORIZONTAL	16	17	0	0		
R	36	HORIZONTAL	17	18	0	0		
R	37	HORIZONTAL	18	19	0	0		
MML	38	"<mrow>\n <mi xml:id="0:">\n  P\n </mi>\n <mi xml:id="1:">\n  (\n </mi>\n <mi xml:id="2:">\n  α\n </mi>\n <mi xml:id="3:">\n  t\n </mi>\n <mi xml:id="4:">\n  α\n </mi>\n <mi xml:id="5:">\n  (\n </mi>\n <mi xml:id="6:">\n  w\n </mi>\n <mi xml:id="7:">\n  )\n </mi>\n <mo xml:id="8:">\n  |\n </mo>\n <mi xml:id="9:">\n  s\n </mi>\n <mi xml:id="10:">\n  m\n </mi>\n <mi xml:id="11:">\n  ε\n </mi>\n <mi xml:id="12:">\n  )\n </mi>\n <mi xml:id="13:">\n  P\n </mi>\n <mi xml:id="14:">\n  (\n </mi>\n <mi xml:id="15:">\n  s\n </mi>\n <mi xml:id="16:">\n  t\n </mi>\n <mi xml:id="17:">\n  )\n </mi>\n <mo xml:id="18:">\n  .\n </mo>\n</mrow>"	0	0	0	0		
FR	4	1424	998	1611	1033
o	1	n	1424	999	1437	1011		
o	2	alpha	1438	1007	1472	1026		
o	3	I	1472	1002	1501	1026		
o	4	epsilon	1502	1002	1546	1027		
o	5	LeftPar	1546	998	1559	1033		
o	6	x	1558	1007	1586	1026		
o	7	RightPar	1586	998	1597	1032		
o	8	pi	1599	999	1605	1011		
o	9	doubleprime	1606	999	1611	1011		
R	10	RSUP	2	1	0	0		
R	11	HORIZONTAL	2	3	0	0		
R	12	HORIZONTAL	3	4	0	0		
R	13	HORIZONTAL	4	5	0	0		
R	14	HORIZONTAL	5	6	0	0		
R	15	HORIZONTAL	6	7	0	0		
R	16	RSUP	7	8	0	0		
R	17	HORIZONTAL	8	9	0	0		
MML	18	"<mrow>\n <msup>\n  <mi xml:id="2:">\n   α\n  </mi>\n  <mi xml:id="0:1:">\n   n\n  </mi>\n </msup>\n <mi xml:id="3:">\n  I\n </mi>\n <mi xml:id="4:">\n  ε\n </mi>\n <mi xml:id="5:">\n  (\n </mi>\n <mi xml:id="6:">\n  x\n </mi>\n <msup>\n  <mi xml:id="7:">\n   )\n  </mi>\n  <mrow>\n   <mi xml:id="8:">\n    π\n   </mi>\n   <mi xml:id="9:">\n    doubleprime\n   </mi>\n  </mrow>\n </msup>\n</mrow>"	0	0	0	0		
FR	5	1231	1178	1418	1213
o	1	lambda	1231	1178	1244	1191		
o	2	alpha	1245	1182	1308	1207		
o	3	z	1309	1187	1343	1206		
o	4	d	1342	1182	1354	1206		
o	5	LeftPar	1354	1178	1366	1212		
o	6	x	1365	1187	1393	1206		
o	7	RightPar	1392	1178	1404	1213		
o	8	n	1406	1178	1411	1190		
o	9	n	1412	1178	1418	1190		
R	10	RSUP	2	1	0	0		
R	11	HORIZONTAL	2	3	0	0		
R	12	HORIZONTAL	3	4	0	0		
R	13	HORIZONTAL	4	5	0	0		
R	14	HORIZONTAL	5	6	0	0		
R	15	HORIZONTAL	6	7	0	0		
R	16	RSUP	7	8	0	0		
R	17	HORIZONTAL	8	9	0	0		
MML	18	"<mrow>\n <msup>\n  <mi xml:id="2:">\n   α\n  </mi>\n  <mi xml:id="0:1:">\n   λ\n  </mi>\n </msup>\n <mi xml:id="3:">\n  z\n </mi>\n <mi xml:id="4:">\n  d\n </mi>\n <mi xml:id="5:">\n  (\n </mi>\n <mi xml:id="6:">\n  x\n </mi>\n <msup>\n  <mi xml:id="7:">\n   )\n  </mi>\n  <mrow>\n   <mi xml:id="8:">\n    n\n   </mi>\n   <mi xml:id="9:">\n    n\n   </mi>\n  </mrow>\n </msup>\n</mrow>"	0	0	0	0		
FR	6	1762	1680	1899	1716
o	1	P	1762	1682	1783	1708		
o	2	LeftPar	1785	1680	1796	1714		
o	3	s	1797	1690	1810	1708		
o	4	w	1810	1689	1861	1716		
o	5	epsilon	1862	1684	1887	1709		
o	6	RightPar	1887	1681	1899	1715		
R	7	HORIZONTAL	1	2	0	0		
R	8	HORIZONTAL	2	3	0	0		
R	9	HORIZONTAL	3	4	0	0		
R	10	HORIZONTAL	4	5	0	0		
R	11	HORIZONTAL	5	6	0	0		
MML	12	"<mrow>\n <mi xml:id="0:">\n  P\n </mi>\n <mi xml:id="1:">\n  (\n </mi>\n <mi xml:id="2:">\n  s\n </mi>\n <mi xml:id="3:">\n  w\n </mi>\n <mi xml:id="4:">\n  ε\n </mi>\n <mi xml:id="5:">\n  )\n </mi>\n</mrow>"	0	0	0	0		
FR	7	1232	1726	1418	1761
o	1	P	1232	1727	1253	1754		
o	2	LeftPar	1254	1726	1266	1761		
o	3	alpha	1266	1735	1293	1754		
o	4	i	1292	1747	1298	1759		
o	5	i	1294	1741	1418	1754		
o	6	vert	1301	1726	1304	1761		
o	7	S	1307	1734	1320	1754		
o	8	m	1320	1734	1371	1761		
o	9	epsilon	1372	1730	1397	1754		
o	10	RightPar	1397	1726	1409	1761		
R	11	HORIZONTAL	1	2	0	0		
R	12	HORIZONTAL	2	3	0	0		
R	13	RSUB	3	4	0	0		
R	14	HORIZONTAL	3	5	0	0		
R	15	HORIZONTAL	5	6	0	0		
R	16	HORIZONTAL	6	7	0	0		
R	17	HORIZONTAL	7	8	0	0		
R	18	HORIZONTAL	8	9	0	0		
R	19	HORIZONTAL	9	10	0	0		
MML	20	"<mrow>\n <mi xml:id="0:">\n  P\n </mi>\n <mi xml:id="1:">\n  (\n </mi>\n <msub>\n  <mi xml:id="2:">\n   α\n  </mi>\n  <mi xml:id="3:">\n   i\n  </mi>\n </msub>\n <mo xml:id="4:">\n  |\n </mo>\n <mi xml:id="5:">\n  S\n </mi>\n <mi xml:id="6:">\n  m\n </mi>\n <mi xml:id="7:">\n  ε\n </mi>\n <mi xml:id="8:">\n  )\n </mi>\n <mi xml:id="10:9:">\n  i\n </mi>\n</mrow>"	0	0	0	0		
FR	8	1712	1770	1911	1805
o	1	P	1712	1772	1732	1798		
o	2	e	1733	1790	1744	1803		
o	3	LeftPar	1745	1771	1756	1805		
o	4	w	1756	1779	1783	1797		
o	5	i	1783	1784	1788	1802		
o	6	]	1791	1770	1794	1805		
o	7	S	1797	1779	1810	1798		
o	8	m	1810	1778	1861	1805		
o	9	t	1861	1774	1887	1798		
o	10	RightPar	1887	1771	1899	1805		
o	11	RightPar	1899	1771	1911	1804		
R	12	RSUB	1	2	0	0		
R	13	HORIZONTAL	1	3	0	0		
R	14	HORIZONTAL	3	4	0	0		
R	15	RSUB	4	5	0	0		
R	16	HORIZONTAL	4	11	0	0		
R	17	HORIZONTAL	6	7	0	0		
R	18	HORIZONTAL	7	8	0	0		
R	19	HORIZONTAL	8	9	0	0		
R	20	HORIZONTAL	9	10	0	0		
R	21	HORIZONTAL	11	6	0	0		
MML	22	"<mrow>\n <msub>\n  <mi xml:id="0:">\n   P\n  </mi>\n  <mi xml:id="1:">\n   e\n  </mi>\n </msub>\n <mi xml:id="2:">\n  (\n </mi>\n <msub>\n  <mi xml:id="3:">\n   w\n  </mi>\n  <mi xml:id="4:5:">\n   i\n  </mi>\n </msub>\n <mi xml:id="11:">\n  ]\n </mi>\n <mi xml:id="6:">\n  S\n </mi>\n <mi xml:id="7:">\n  m\n </mi>\n <mi xml:id="8:">\n  t\n </mi>\n <mi xml:id="9:">\n  )\n </mi>\n <mi xml:id="10:">\n  )\n </mi>\n</mrow>"	0	0	0	0		
FR	9	1359	2442	1513	2478
o	1	s	1359	2450	1372	2469		
o	2	j	1370	2456	1378	2478		
o	3	LeftPar	1400	2442	1411	2476		
o	4	i	1422	2450	1431	2468		
o	5	i	1424	2442	1429	2447		
o	6	notequal	1451	2446	1471	2468		
o	7	j	1478	2442	1490	2477		
o	8	RightPar	1501	2442	1513	2476		
R	9	HORIZONTAL	1	2	0	0		
R	10	RSUB	1	7	0	0		
R	11	HORIZONTAL	2	8	0	0		
R	12	HORIZONTAL	4	5	0	0		
R	13	HORIZONTAL	5	6	0	0		
R	14	UPPER	8	3	0	0		
R	15	HORIZONTAL	8	4	0	0		
MML	16	"<mrow>\n <msub>\n  <mi xml:id="0:">\n   s\n  </mi>\n  <mi xml:id="7:">\n   j\n  </mi>\n </msub>\n <mi xml:id="1:">\n  (\n </mi>\n <munder>\n  <mi xml:id="2:">\n   i\n  </mi>\n  <mi xml:id="8:">\n   i\n  </mi>\n </munder>\n <mi xml:id="3:">\n  ≠\n </mi>\n <mi xml:id="4:5:">\n  j\n </mi>\n <mi xml:id="6:">\n  )\n </mi>\n</mrow>"	0	0	0	0		
P	3	2176	2816
FR	1	1264	867	1773	985
o	1	P	1264	907	1286	934		
o	2	alpha	1287	927	1297	941		
o	3	LeftPar	1299	906	1310	942		
o	4	w	1311	915	1343	935		
o	5	RightPar	1338	908	1773	943		
o	6	vert	1347	906	1350	943		
o	7	four	1352	915	1371	935		
o	8	RightPar	1371	906	1384	942		
o	9	equal	1394	915	1417	927		
o	10	minus	1432	921	1681	927		
o	11	sum	1436	928	1481	985		
o	12	M	1482	878	1524	909		
o	13	pm	1483	972	1511	985		
o	14	r	1514	967	1535	985		
o	15	M	1527	867	1539	916		
o	16	w	1537	888	1566	909		
o	17	M	1541	940	1583	969		
o	18	i	1565	901	1571	918		
o	19	vert	1580	867	1602	916		
o	20	BigLeftPar	1587	927	1599	977		
o	21	v	1597	949	1625	969		
o	22	x	1599	888	1621	909		
o	23	prime	1623	867	1635	915		
o	24	vert	1626	927	1647	977		
o	25	x	1645	949	1666	970		
o	26	BigRightPar	1669	928	1681	977		
o	27	LeftPar	1730	907	1741	944		
o	28	circ	1743	908	1758	936		
R	29	RSUB	1	2	0	0		
R	30	HORIZONTAL	1	3	0	0		
R	31	HORIZONTAL	3	4	0	0		
R	32	HORIZONTAL	4	5	0	0		
R	33	HORIZONTAL	5	6	0	0		
R	34	HORIZONTAL	6	7	0	0		
R	35	HORIZONTAL	7	8	0	0		
R	36	HORIZONTAL	8	9	0	0		
R	37	UNDER	9	10	0	0		
R	38	HORIZONTAL	9	23	0	0		
R	39	UPPER	9	26	0	0		
R	40	HORIZONTAL	10	11	0	0		
R	41	HORIZONTAL	11	12	0	0		
R	42	RSUP	12	14	0	0		
R	43	HORIZONTAL	13	27	0	0		
R	44	HORIZONTAL	14	17	0	0		
R	45	HORIZONTAL	16	28	0	0		
R	46	HORIZONTAL	17	18	0	0		
R	47	HORIZONTAL	18	20	0	0		
R	48	HORIZONTAL	20	21	0	0		
R	49	HORIZONTAL	21	22	0	0		
R	50	HORIZONTAL	23	24	0	0		
R	51	HORIZONTAL	24	25	0	0		
R	52	HORIZONTAL	26	13	0	0		
R	53	RSUB	27	15	0	0		
R	54	HORIZONTAL	27	16	0	0		
R	55	HORIZONTAL	28	19	0	0		
MML	56	"<mrow>\n <msub>\n  <mi xml:id="0:">\n   P\n  </mi>\n  <mi xml:id="1:">\n   α\n  </mi>\n </msub>\n <mi xml:id="2:">\n  (\n </mi>\n <mi xml:id="3:4:">\n  w\n </mi>\n <mo xml:id="5:">\n  |\n </mo>\n <mn xml:id="6:">\n  4\n </mn>\n <mi xml:id="7:">\n  )\n </mi>\n <mo xml:id="8:9:">\n  =\n </mo>\n <mfrac xml:id="10:">\n  <mrow>\n   <mi xml:id="29:">\n    M\n   </mi>\n   <mi xml:id="14:">\n    M\n   </mi>\n   <msub>\n    <mi xml:id="30:">\n     w\n    </mi>\n    <mi xml:id="16:17:">\n     i\n    </mi>\n   </msub>\n   <mo xml:id="18:">\n    |\n   </mo>\n   <mi xml:id="31:">\n    x\n   </mi>\n   <mo xml:id="21:">\n    ′\n   </mo>\n  </mrow>\n  <mrow>\n   <mo xml:id="11:">\n    ∑\n   </mo>\n   <mo xml:id="12:">\n    &amp;pm\n   </mo>\n   <msup>\n    <mi xml:id="13:">\n     r\n    </mi>\n    <mrow>\n     <mi xml:id="15:">\n      M\n     </mi>\n     <mi xml:id="19:">\n      [\n     </mi>\n     <mi xml:id="20:">\n      v\n     </mi>\n     <mo xml:id="22:">\n      |\n     </mo>\n     <mi xml:id="23:">\n      x\n     </mi>\n     <mi xml:id="24:">\n      ]\n     </mi>\n    </mrow>\n   </msup>\n  </mrow>\n </mfrac>\n <mi xml:id="25:">\n  (\n </mi>\n <mi xml:id="26:">\n  ˆ\n </mi>\n <mi xml:id="27:28:">\n  )\n </mi>\n</mrow>"	0	0	0	0		
FR	2	1138	1050	1268	1086
o	1	M	1138	1051	1172	1078		
o	2	BigLeftPar	1174	1050	1185	1086		
o	3	w	1185	1059	1214	1078		
o	4	two	1213	1050	1223	1086		
o	5	BigLeftPar	1227	1050	1238	1086		
o	6	x	1238	1059	1258	1078		
o	7	BigRightPar	1258	1050	1268	1085		
R	8	HORIZONTAL	1	2	0	0		
R	9	HORIZONTAL	2	3	0	0		
R	10	HORIZONTAL	3	4	0	0		
R	11	HORIZONTAL	4	5	0	0		
R	12	HORIZONTAL	5	6	0	0		
R	13	HORIZONTAL	6	7	0	0		
MML	14	"<mrow>\n <mi xml:id="0:">\n  M\n </mi>\n <mi xml:id="1:">\n  [\n </mi>\n <mi xml:id="2:">\n  w\n </mi>\n <mn xml:id="3:">\n  2\n </mn>\n <mi xml:id="4:">\n  [\n </mi>\n <mi xml:id="5:">\n  x\n </mi>\n <mi xml:id="6:">\n  ]\n </mi>\n</mrow>"	0	0	0	0		
FR	3	1266	1186	1781	1318
o	1	P	1266	1234	1299	1269		
o	2	d	1301	1234	1312	1270		
o	3	alpha	1312	1243	1331	1263		
o	4	RightPar	1331	1235	1344	1271		
o	5	equal	1354	1243	1377	1254		
o	6	minus	1393	1248	1698	1253		
o	7	sum	1397	1187	1469	1313		
o	8	equal	1444	1230	1499	1313		
o	9	tau	1475	1295	1496	1313		
o	10	comma	1498	1311	1503	1318		
o	11	omega	1502	1226	1524	1245		
o	12	x	1505	1299	1530	1318		
o	13	M	1529	1198	1571	1229		
o	14	r	1534	1295	1549	1313		
o	15	M	1555	1267	1596	1298		
o	16	t	1575	1187	1587	1236		
o	17	w	1586	1208	1615	1229		
o	18	vert	1600	1255	1613	1305		
o	19	t	1610	1276	1640	1297		
o	20	vert	1614	1186	1636	1236		
o	21	s	1634	1208	1656	1229		
o	22	V	1640	1256	1682	1306		
o	23	]	1657	1187	1670	1236		
o	24	BigRightPar	1685	1256	1697	1306		
o	25	LeftPar	1737	1235	1748	1271		
o	26	zeta	1749	1235	1768	1264		
o	27	RightPar	1768	1235	1781	1271		
R	28	HORIZONTAL	1	2	0	0		
R	29	HORIZONTAL	2	3	0	0		
R	30	HORIZONTAL	3	4	0	0		
R	31	HORIZONTAL	4	5	0	0		
R	32	HORIZONTAL	5	6	0	0		
R	33	UNDER	6	7	0	0		
R	34	HORIZONTAL	6	22	0	0		
R	35	UPPER	6	25	0	0		
R	36	RSUB	7	8	0	0		
R	37	HORIZONTAL	7	9	0	0		
R	38	HORIZONTAL	8	11	0	0		
R	39	PUNC	9	10	0	0		
R	40	HORIZONTAL	10	12	0	0		
R	41	HORIZONTAL	12	13	0	0		
R	42	RSUP	13	14	0	0		
R	43	HORIZONTAL	14	16	0	0		
R	44	HORIZONTAL	15	26	0	0		
R	45	HORIZONTAL	16	17	0	0		
R	46	HORIZONTAL	17	20	0	0		
R	47	HORIZONTAL	18	19	0	0		
R	48	HORIZONTAL	19	27	0	0		
R	49	HORIZONTAL	20	21	0	0		
R	50	HORIZONTAL	22	24	0	0		
R	51	HORIZONTAL	24	23	0	0		
R	52	HORIZONTAL	25	15	0	0		
R	53	HORIZONTAL	26	18	0	0		
MML	54	"<mrow>\n <mi xml:id="0:1:">\n  P\n </mi>\n <mi xml:id="2:">\n  d\n </mi>\n <mi xml:id="3:">\n  α\n </mi>\n <mi xml:id="4:">\n  )\n </mi>\n <mo xml:id="5:6:">\n  =\n </mo>\n <mfrac xml:id="7:">\n  <mrow>\n   <mi xml:id="28:">\n    M\n   </mi>\n   <mi xml:id="18:">\n    t\n   </mi>\n   <mi xml:id="29:">\n    w\n   </mi>\n   <mo xml:id="21:">\n    |\n   </mo>\n   <mi xml:id="22:">\n    s\n   </mi>\n   <mi xml:id="30:">\n    ]\n   </mi>\n  </mrow>\n  <mrow>\n   <msub>\n    <mo xml:id="8:9:">\n     ∑\n    </mo>\n    <mrow>\n     <mo xml:id="10:11:">\n      =\n     </mo>\n     <mi xml:id="14:">\n      ω\n     </mi>\n    </mrow>\n   </msub>\n   <mi xml:id="12:">\n    τ\n   </mi>\n   <mo xml:id="13:">\n    ,\n   </mo>\n   <mi xml:id="15:">\n    x\n   </mi>\n   <msup>\n    <mi xml:id="16:">\n     r\n    </mi>\n    <mrow>\n     <mi xml:id="17:">\n      M\n     </mi>\n     <mo xml:id="19:">\n      |\n     </mo>\n     <mi xml:id="20:">\n      t\n     </mi>\n     <mi xml:id="23:">\n      V\n     </mi>\n     <mi xml:id="24:">\n      ]\n     </mi>\n    </mrow>\n   </msup>\n  </mrow>\n </mfrac>\n <mi xml:id="25:">\n  (\n </mi>\n <mi xml:id="27:">\n  )\n </mi>\n <mi xml:id="26:">\n  ζ\n </mi>\n</mrow>"	0	0	0	0		
FR	4	1300	1386	1435	1417
o	1	S	1300	1391	1313	1411		
o	2	m	1313	1390	1366	1417		
o	3	k	1367	1386	1401	1416		
o	4	V	1414	1391	1435	1417		
R	5	HORIZONTAL	1	2	0	0		
R	6	HORIZONTAL	2	3	0	0		
R	7	HORIZONTAL	3	4	0	0		
MML	8	"<mrow>\n <mi xml:id="0:">\n  S\n </mi>\n <mi xml:id="1:">\n  m\n </mi>\n <mi xml:id="2:">\n  k\n </mi>\n <mi xml:id="3:">\n  V\n </mi>\n</mrow>"	0	0	0	0		
FR	5	282	2076	1861	2628
o	1	vert	282	2076	1861	2588		
o	2	zeta	715	2595	742	2621		
o	3	semicolon	739	2604	748	2621		
o	4	semicolon	745	2597	750	2602		
o	5	T	747	2604	784	2628		
o	6	r	785	2604	800	2620		
o	7	e	799	2604	815	2621		
o	8	2	824	2595	842	2621		
o	9	T	843	2617	848	2621		
o	10	I	848	2604	853	2609		
o	11	in	868	2595	937	2621		
o	12	A	944	2595	966	2621		
o	13	zero	968	2595	980	2620		
o	14	zero	976	2603	1015	2628		
o	15	m	1015	2603	1038	2621		
o	16	m	1034	2597	1039	2601		
o	17	N	1039	2600	1051	2620		
o	18	h	1049	2595	1066	2620		
o	19	m	1067	2604	1092	2620		
o	20	:	1094	2616	1098	2620		
o	21	LeftPar	1098	2604	1103	2608		
o	22	LeftPar	1114	2600	1126	2620		
o	23	h	1125	2595	1142	2620		
o	24	e	1143	2603	1159	2620		
o	25	s	1167	2604	1181	2620		
o	26	e	1182	2603	1198	2620		
o	27	k	1198	2603	1229	2620		
o	28	e	1230	2603	1246	2620		
o	29	E	1249	2595	1481	2628		
o	30	e	1482	2603	1497	2620		
R	31	RSUB	1	3	0	0		
R	32	HORIZONTAL	1	4	0	0		
R	33	UNDER	1	6	0	0		
R	34	HORIZONTAL	2	1	0	0		
R	35	RSUP	3	5	0	0		
R	36	HORIZONTAL	3	18	0	0		
R	37	HORIZONTAL	4	20	0	0		
R	38	RSUP	6	7	0	0		
R	39	HORIZONTAL	8	21	0	0		
R	40	HORIZONTAL	9	10	0	0		
R	41	RSUP	10	11	0	0		
R	42	HORIZONTAL	10	12	0	0		
R	43	HORIZONTAL	11	13	0	0		
R	44	HORIZONTAL	12	22	0	0		
R	45	HORIZONTAL	14	24	0	0		
R	46	HORIZONTAL	15	25	0	0		
R	47	HORIZONTAL	16	17	0	0		
R	48	RSUB	17	29	0	0		
R	49	HORIZONTAL	17	30	0	0		
R	50	HORIZONTAL	18	19	0	0		
R	51	HORIZONTAL	20	8	0	0		
R	52	HORIZONTAL	21	9	0	0		
R	53	HORIZONTAL	22	23	0	0		
R	54	RSUP	23	14	0	0		
R	55	HORIZONTAL	23	15	0	0		
R	56	HORIZONTAL	25	26	0	0		
R	57	HORIZONTAL	26	27	0	0		
R	58	HORIZONTAL	27	28	0	0		
R	59	HORIZONTAL	28	16	0	0		
MML	60	"<mrow>\n <mi xml:id="1:">\n  ζ\n </mi>\n <msub>\n  <munder>\n   <mo xml:id="0:">\n    |\n   </mo>\n   <msup>\n    <mi xml:id="5:">\n     T\n    </mi>\n    <mi xml:id="6:">\n     I\n    </mi>\n   </msup>\n  </munder>\n  <mrow>\n   <msup>\n    <mi xml:id="2:">\n     ;\n    </mi>\n    <mi xml:id="4:">\n     T\n    </mi>\n   </msup>\n   <mi xml:id="30:">\n    r\n   </mi>\n   <mi xml:id="31:">\n    e\n   </mi>\n  </mrow>\n </msub>\n <mi xml:id="3:">\n  ;\n </mi>\n <mn xml:id="32:">\n  2\n </mn>\n <mo xml:id="7:">\n  &amp;in\n </mo>\n <mi xml:id="33:">\n  A\n </mi>\n <mn xml:id="8:">\n  0\n </mn>\n <msup>\n  <mn xml:id="10:9:">\n   0\n  </mn>\n  <mrow>\n   <mi xml:id="11:">\n    m\n   </mi>\n   <mi xml:id="13:">\n    N\n   </mi>\n  </mrow>\n </msup>\n <mi xml:id="12:">\n  m\n </mi>\n <mi xml:id="34:">\n  h\n </mi>\n <msup>\n  <mi xml:id="35:">\n   m\n  </mi>\n  <mrow>\n   <mi xml:id="14:">\n    (\n   </mi>\n   <mi xml:id="36:">\n    :\n   </mi>\n  </mrow>\n </msup>\n <mi xml:id="15:">\n  (\n </mi>\n <mi xml:id="37:">\n  h\n </mi>\n <mi xml:id="38:">\n  e\n </mi>\n <mi xml:id="39:">\n  s\n </mi>\n <mi xml:id="40:">\n  e\n </mi>\n <mi xml:id="16:">\n  k\n </mi>\n <msub>\n  <mi xml:id="17:18:19:20:21:22:23:24:25:26:27:28:29:">\n   E\n  </mi>\n  <mi xml:id="41:">\n   e\n  </mi>\n </msub>\n <mi xml:id="42:">\n  e\n </mi>\n</mrow>"	0	0	0	0		
P	4	2176	2816
FR	1	1558	2376	1694	2410
o	1	K	1558	2376	1598	2409		
o	2	equal	1619	2385	1641	2395		
o	3	two	1663	2377	1681	2403		
o	4	RightPar	1683	2376	1694	2410		
R	5	HORIZONTAL	1	2	0	0		
R	6	HORIZONTAL	2	3	0	0		
R	7	HORIZONTAL	3	4	0	0		
MML	8	"<mrow>\n <mi xml:id="0:">\n  K\n </mi>\n <mo xml:id="1:2:">\n  =\n </mo>\n <mn xml:id="3:">\n  2\n </mn>\n <mi xml:id="4:">\n  )\n </mi>\n</mrow>"	0	0	0	0		
FR	2	1610	2465	1770	2500
o	1	N	1610	2466	1649	2500		
o	2	equal	1664	2474	1685	2484		
o	3	3	1703	2466	1718	2493		
o	4	six	1721	2465	1739	2493		
o	5	five	1740	2466	1757	2493		
o	6	RightPar	1759	2466	1770	2500		
R	7	HORIZONTAL	1	2	0	0		
R	8	HORIZONTAL	2	6	0	0		
R	9	HORIZONTAL	3	4	0	0		
R	10	HORIZONTAL	4	5	0	0		
R	11	HORIZONTAL	6	3	0	0		
MML	12	"<mrow>\n <mi xml:id="0:">\n  N\n </mi>\n <mo xml:id="1:2:">\n  =\n </mo>\n <mn xml:id="6:">\n  3\n </mn>\n <mn xml:id="3:">\n  6\n </mn>\n <mn xml:id="4:">\n  5\n </mn>\n <mi xml:id="5:">\n  )\n </mi>\n</mrow>"	0	0	0	0		
FR	3	436	2593	652	2631
o	1	three	436	2593	445	2609		
o	2	A	456	2600	481	2624		
o	3	infty	489	2607	524	2631		
o	4	l	524	2599	533	2624		
o	5	s	533	2607	562	2631		
o	6	m	563	2606	604	2624		
o	7	o	606	2606	621	2624		
o	8	u	621	2607	639	2624		
o	9	s	640	2606	652	2624		
R	10	HORIZONTAL	1	9	0	0		
R	11	HORIZONTAL	2	3	0	0		
R	12	HORIZONTAL	3	4	0	0		
R	13	HORIZONTAL	4	5	0	0		
R	14	HORIZONTAL	5	6	0	0		
R	15	HORIZONTAL	6	7	0	0		
R	16	HORIZONTAL	7	8	0	0		
R	17	HORIZONTAL	9	2	0	0		
MML	18	"<mrow>\n <mn xml:id="0:">\n  3\n </mn>\n <mi xml:id="8:">\n  A\n </mi>\n <mi xml:id="1:">\n  ∞\n </mi>\n <mi xml:id="2:">\n  l\n </mi>\n <mi xml:id="3:">\n  s\n </mi>\n <mi xml:id="4:">\n  m\n </mi>\n <mi xml:id="5:">\n  o\n </mi>\n <mi xml:id="6:">\n  u\n </mi>\n <mi xml:id="7:">\n  s\n </mi>\n</mrow>"	0	0	0	0		
P	5	2176	2816
FR	1	1132	877	1320	910
o	1	LeftPar	1132	877	1147	910		
o	2	alpha	1143	884	1166	904		
o	3	equal	1167	886	1186	890		
o	4	equal	1167	891	1320	904		
o	5	ldots	1187	899	1191	904		
o	6	0	1197	879	1214	904		
o	7	5	1213	879	1231	904		
o	8	comma	1230	899	1236	907		
o	9	2	1249	878	1266	904		
o	10	sim	1266	892	1277	898		
o	11	a	1278	886	1295	904		
o	12	l	1295	879	1306	904		
o	13	t	1306	883	1316	904		
R	14	HORIZONTAL	1	2	0	0		
R	15	HORIZONTAL	2	8	0	0		
R	16	HORIZONTAL	7	13	0	0		
R	17	UPPER	8	3	0	0		
R	18	PUNC	8	4	0	0		
R	19	HORIZONTAL	8	9	0	0		
R	20	HORIZONTAL	9	10	0	0		
R	21	PUNC	10	5	0	0		
R	22	HORIZONTAL	10	11	0	0		
R	23	HORIZONTAL	11	12	0	0		
R	24	LSUP	12	6	0	0		
R	25	HORIZONTAL	12	7	0	0		
MML	26	"<mrow>\n <mi xml:id="0:">\n  (\n </mi>\n <mi xml:id="1:">\n  α\n </mi>\n <munder>\n  <mo xml:id="2:">\n   =\n  </mo>\n  <mo xml:id="7:8:">\n   =\n  </mo>\n </munder>\n <mo xml:id="3:">\n  …\n </mo>\n <mn xml:id="9:">\n  0\n </mn>\n <mn xml:id="10:">\n  5\n </mn>\n <mn xml:id="11:">\n  2\n </mn>\n <msup>\n  <mi xml:id="12:">\n   a\n  </mi>\n  <mi xml:id="5:">\n   ∼\n  </mi>\n </msup>\n <mi xml:id="6:">\n  l\n </mi>\n <mi xml:id="13:">\n  t\n </mi>\n <mo xml:id="4:">\n  ,\n </mo>\n</mrow>"	0	0	0	0		
FR	2	823	1102	1038	1137
o	1	LeftPar	823	1102	835	1137		
o	2	d	835	1102	870	1131		
o	3	equal	887	1112	909	1122		
o	4	K	930	1103	958	1131		
o	5	minus	978	1118	999	1122		
o	6	one	1003	1103	1013	1131		
o	7	RightPar	1018	1102	1029	1137		
o	8	comma	1031	1125	1038	1136		
R	9	HORIZONTAL	1	2	0	0		
R	10	HORIZONTAL	2	3	0	0		
R	11	HORIZONTAL	3	4	0	0		
R	12	HORIZONTAL	4	5	0	0		
R	13	HORIZONTAL	5	6	0	0		
R	14	HORIZONTAL	6	7	0	0		
R	15	HORIZONTAL	7	8	0	0		
MML	16	"<mrow>\n <mi xml:id="0:">\n  (\n </mi>\n <mi xml:id="1:">\n  d\n </mi>\n <mo xml:id="2:3:">\n  =\n </mo>\n <mi xml:id="4:">\n  K\n </mi>\n <mo xml:id="5:">\n  -\n </mo>\n <mn xml:id="6:">\n  1\n </mn>\n <mi xml:id="7:">\n  )\n </mi>\n <mo xml:id="8:">\n  ,\n </mo>\n</mrow>"	0	0	0	0		
FR	3	531	1646	593	1681
o	1	i	531	1646	593	1681		
MML	2	"<mi xml:id="0:1:">\n i\n</mi>"	0	0	0	0		
P	6	2176	2816
FR	1	1799	457	1938	489
o	1	pi	1799	458	1831	489		
o	2	a	1826	458	1871	484		
o	3	colon	1872	458	1938	484		
o	4	dot	1894	473	1904	478		
o	5	7	1908	458	1924	484		
o	6	RightPar	1918	457	1932	489		
R	7	HORIZONTAL	1	2	0	0		
R	8	HORIZONTAL	2	5	0	0		
R	9	PUNC	5	3	0	0		
R	10	HORIZONTAL	5	6	0	0		
R	11	HORIZONTAL	6	4	0	0		
MML	12	"<mrow>\n <mi xml:id="0:">\n  π\n </mi>\n <mi xml:id="1:">\n  a\n </mi>\n <mi xml:id="4:5:">\n  &amp;colon\n </mi>\n <mo xml:id="2:">\n  .\n </mo>\n <mn xml:id="6:">\n  7\n </mn>\n <mi xml:id="3:">\n  )\n </mi>\n</mrow>"	0	0	0	0		
FR	2	1834	541	1943	573
o	1	LeftPar	1834	541	1882	573		
o	2	s	1883	541	1900	567		
o	3	T	1901	541	1922	567		
o	4	RightPar	1923	541	1933	573		
o	5	comma	1936	561	1943	571		
R	6	HORIZONTAL	1	2	0	0		
R	7	HORIZONTAL	2	3	0	0		
R	8	HORIZONTAL	3	4	0	0		
R	9	PUNC	4	5	0	0		
MML	10	"<mrow>\n <mi xml:id="0:">\n  (\n </mi>\n <mi xml:id="1:">\n  s\n </mi>\n <mi xml:id="2:">\n  T\n </mi>\n <mi xml:id="3:">\n  )\n </mi>\n <mo xml:id="4:">\n  ,\n </mo>\n</mrow>"	0	0	0	0		
FR	3	825	811	1017	845
o	1	(	825	813	839	845		
o	2	A	832	813	854	839		
o	3	C	857	813	881	839		
o	4	M	878	813	913	839		
o	5	h	908	813	923	838		
o	6	s	919	813	939	839		
o	7	T	935	813	952	838		
o	8	G	951	812	975	839		
o	9	d	973	813	988	839		
o	10	p	984	813	1007	838		
o	11	RightPar	1003	811	1017	845		
R	12	HORIZONTAL	1	2	0	0		
R	13	HORIZONTAL	2	3	0	0		
R	14	HORIZONTAL	3	4	0	0		
R	15	HORIZONTAL	4	5	0	0		
R	16	HORIZONTAL	5	6	0	0		
R	17	HORIZONTAL	6	7	0	0		
R	18	RSUP	7	8	0	0		
R	19	HORIZONTAL	7	9	0	0		
R	20	HORIZONTAL	9	10	0	0		
R	21	HORIZONTAL	11	1	0	0		
MML	22	"<mrow>\n <mi xml:id="10:">\n  (\n </mi>\n <mi xml:id="0:">\n  A\n </mi>\n <mi xml:id="1:">\n  C\n </mi>\n <mi xml:id="2:">\n  M\n </mi>\n <mi xml:id="3:">\n  h\n </mi>\n <mi xml:id="4:">\n  s\n </mi>\n <mi xml:id="5:">\n  T\n </mi>\n <msup>\n  <mi xml:id="6:">\n   G\n  </mi>\n  <mi xml:id="7:">\n   d\n  </mi>\n </msup>\n <mi xml:id="8:">\n  p\n </mi>\n <mi xml:id="9:">\n  )\n </mi>\n</mrow>"	0	0	0	0		
FR	4	829	1228	1022	1259
o	1	(	829	1228	843	1259		
o	2	A	836	1229	858	1254		
o	3	C	862	1228	885	1254		
o	4	M	882	1228	927	1254		
o	5	s	923	1228	956	1253		
o	6	G	955	1228	979	1254		
o	7	u	976	1228	993	1253		
o	8	R	988	1228	1010	1253		
o	9	RightPar	1007	1228	1022	1259		
R	10	HORIZONTAL	1	2	0	0		
R	11	HORIZONTAL	2	3	0	0		
R	12	HORIZONTAL	3	4	0	0		
R	13	HORIZONTAL	4	5	0	0		
R	14	HORIZONTAL	5	6	0	0		
R	15	HORIZONTAL	6	7	0	0		
R	16	HORIZONTAL	7	8	0	0		
R	17	HORIZONTAL	9	1	0	0		
MML	18	"<mrow>\n <mi xml:id="8:">\n  (\n </mi>\n <mi xml:id="0:">\n  A\n </mi>\n <mi xml:id="1:">\n  C\n </mi>\n <mi xml:id="2:">\n  M\n </mi>\n <mi xml:id="3:">\n  s\n </mi>\n <mi xml:id="4:">\n  G\n </mi>\n <mi xml:id="5:">\n  u\n </mi>\n <mi xml:id="6:">\n  R\n </mi>\n <mi xml:id="7:">\n  )\n </mi>\n</mrow>"	0	0	0	0		
FR	5	434	1396	591	1428
o	1	Y	434	1397	485	1423		
o	2	colon	487	1404	492	1423		
o	3	A	503	1397	529	1422		
o	4	C	530	1397	552	1423		
o	5	M	553	1396	584	1422		
o	6	comma	585	1417	591	1428		
R	7	HORIZONTAL	1	2	0	0		
R	8	HORIZONTAL	2	4	0	0		
R	9	HORIZONTAL	4	5	0	0		
R	10	HORIZONTAL	5	6	0	0		
R	11	RSUB	6	3	0	0		
MML	12	"<mrow>\n <mi xml:id="0:">\n  Y\n </mi>\n <mi xml:id="1:2:">\n  &amp;colon\n </mi>\n <mi xml:id="4:">\n  A\n </mi>\n <mi xml:id="5:">\n  C\n </mi>\n <msub>\n  <mi xml:id="6:">\n   M\n  </mi>\n  <mo xml:id="3:">\n   ,\n  </mo>\n </msub>\n</mrow>"	0	0	0	0		
FR	6	1255	1916	1460	1942
o	1	M	1255	1916	1460	1942		
o	2	L	1301	1917	1321	1942		
o	3	S	1337	1916	1358	1942		
o	4	X	1354	1917	1371	1942		
o	5	G	1368	1916	1393	1942		
R	6	HORIZONTAL	1	2	0	0		
R	7	HORIZONTAL	2	5	0	0		
R	8	HORIZONTAL	3	4	0	0		
R	9	HORIZONTAL	4	1	0	0		
MML	10	"<mrow>\n <mi xml:id="2:3:4:">\n  M\n </mi>\n <mi xml:id="5:">\n  L\n </mi>\n <mi xml:id="0:">\n  S\n </mi>\n <mi xml:id="1:">\n  X\n </mi>\n <mi xml:id="6:">\n  G\n </mi>\n</mrow>"	0	0	0	0		
FR	7	882	2224	1023	2257
o	1	alpha	882	2224	955	2255		
o	2	C	956	2224	979	2250		
o	3	minus	978	2238	988	2243		
o	4	seven	993	2225	1008	2250		
o	5	RightPar	1003	2224	1016	2257		
o	6	)	1019	2245	1023	2249		
R	7	HORIZONTAL	1	2	0	0		
R	8	PUNC	2	3	0	0		
R	9	HORIZONTAL	2	4	0	0		
R	10	HORIZONTAL	4	5	0	0		
R	11	HORIZONTAL	5	6	0	0		
MML	12	"<mrow>\n <mi xml:id="0:">\n  α\n </mi>\n <mi xml:id="1:">\n  C\n </mi>\n <mo xml:id="2:">\n  -\n </mo>\n <mn xml:id="3:">\n  7\n </mn>\n <mi xml:id="4:">\n  )\n </mi>\n <mi xml:id="5:">\n  )\n </mi>\n</mrow>"	0	0	0	0		
FR	8	442	2553	797	2588
o	1	C	442	2554	465	2581		
o	2	O	465	2555	490	2581		
o	3	M	487	2555	547	2581		
o	4	G	544	2554	569	2580		
o	5	A	566	2554	581	2581		
o	6	A	576	2555	598	2580		
o	7	C	601	2554	625	2580		
o	8	L	622	2555	643	2580		
o	9	W	659	2554	690	2579		
o	10	o	685	2563	702	2580		
o	11	n	703	2563	718	2579		
o	12	s	716	2553	745	2580		
o	13	h	746	2554	762	2580		
o	14	a	763	2562	780	2580		
o	15	p	776	2563	797	2588		
R	16	HORIZONTAL	1	11	0	0		
R	17	HORIZONTAL	2	12	0	0		
R	18	HORIZONTAL	3	4	0	0		
R	19	HORIZONTAL	4	5	0	0		
R	20	HORIZONTAL	5	6	0	0		
R	21	HORIZONTAL	6	7	0	0		
R	22	HORIZONTAL	7	8	0	0		
R	23	HORIZONTAL	9	10	0	0		
R	24	HORIZONTAL	10	1	0	0		
R	25	HORIZONTAL	11	2	0	0		
R	26	HORIZONTAL	12	13	0	0		
R	27	HORIZONTAL	13	14	0	0		
R	28	HORIZONTAL	14	15	0	0		
R	29	RSUB	15	3	0	0		
MML	30	"<mrow>\n <mi xml:id="8:">\n  C\n </mi>\n <mi xml:id="9:">\n  O\n </mi>\n <mi xml:id="0:">\n  M\n </mi>\n <mi xml:id="10:">\n  G\n </mi>\n <mi xml:id="1:">\n  A\n </mi>\n <mi xml:id="11:">\n  A\n </mi>\n <mi xml:id="12:">\n  C\n </mi>\n <mi xml:id="13:">\n  L\n </mi>\n <msub>\n  <mi xml:id="14:">\n   W\n  </mi>\n  <mrow>\n   <mi xml:id="2:">\n    o\n   </mi>\n   <mi xml:id="3:">\n    n\n   </mi>\n   <mi xml:id="4:">\n    s\n   </mi>\n   <mi xml:id="5:">\n    h\n   </mi>\n   <mi xml:id="6:">\n    a\n   </mi>\n   <mi xml:id="7:">\n    p\n   </mi>\n  </mrow>\n </msub>\n</mrow>"	0	0	0	0		
